{
  "base": "semantic/",
  "paths": {
    "source": {
      "config": "src/theme.config",
      "definitions": "src/definitions/",
      "site": "src/site/",
      "themes": "src/themes/"
    },
    "output": {
      "packaged": "../public/semantic/",
      "uncompressed": "../public/semantic/components/",
      "compressed": "../public/semantic/components/",
      "themes": "../public/semantic/themes/"
    },
    "clean": "../public/semantic/"
  },
  "permission": false,
  "autoInstall": true,
  "rtl": false,
  "version": "2.4.2"
}